bornana,0.62,4/29/2022
banana,0.62,4/29/2022
banana,0.62,4/29/2022
banana,0.62,4/29/2022
banana,0.62,4/29/2022
banana,0.62,4/29/2022
banana,0.62,4/29/2022
banana,0.62,4/29/2022
carrot,0.62,4/29/2022
carrot,0.62,4/29/2022
carrot,0.62,4/29/2022
carrot,0.62,4/29/2022
carrot,0.62,4/29/2022
carrot,0.62,4/29/2022
apple,0.5,4/29/2022
apple,0.5,4/29/2022
apple,0.5,4/29/2022
apple,0.5,4/29/2022
avocado,1.5,4/29/2022
avocado,1.5,4/29/2022
avocado,1.5,4/29/2022
avocado,1.5,4/29/2022
bread,3.5,4/29/2022
bread,3.5,4/29/2022
bread,3.5,4/29/2022
bread,3.5,4/29/2022
bag of chips,0.99,4/29/2022
bag of chips,0.99,4/29/2022
bag of chips,0.99,4/29/2022
bag of chips,0.99,4/29/2022
&*$#
pencil,1.29,
pencil,1.29,
pencil,1.29,
pen,1.79,
pen,1.79,
pen,1.79,
pen,1.79,
pad of paper,3.0,
pad of paper,3.0,
pad of paper,3.0,
&*$#
bottle of water,1.0,4/29/2023
bottle of water,1.0,4/29/2023
bottle of water,1.0,4/29/2023
bottle of water,1.0,4/29/2023
bottle of juice,1.19,4/29/2022
bottle of juice,1.19,4/29/2022
bottle of juice,1.19,4/29/2022
bottle of juice,1.19,4/29/2022
bottle of juice,1.19,4/29/2022
&*$#
wine,12.99,21
beer,10.99,21
beer,10.99,21
Alestorm,17.41,0
&*$#
cold meds,24.99,18
cold meds,24.99,18
drug2,666.66,69
&*$#,1.2,558.159
